{
  "projects": {
    "app": {
      "schema": "http://0.0.0.0:8055/graphql",
      "documents": "src{/**/!(system),*}/*.{gql,graphql,js,ts,jsx,tsx,vue}",
      "extensions": {
        "endpoints": {
          "default": {
            "url": "http://0.0.0.0:8055/graphql"
          }
        }
      }
    },
    "system": {
      "schema": "http://0.0.0.0:8055/graphql/system",
      "documents": "src/gql/system/**/*.{gql,graphql,js,ts}",
      "extensions": {
        "endpoints": {
          "default": {
            "url": "http://0.0.0.0:8055/graphql/system"
          }
        }
      }
    }
  }
}
